{"success":true,"data":[{"id":10232,"org_id":"OU937239","parent_id":"OU763737","county":"Homa Bay County","subcounty":"Homa Bay Town Sub County","ward":"Homa Bay Central Ward","location":"Kalanya Kanyango Location","sublocation":"Kalanya Kanyango Sub Location","village":"Kuja - A Village","county_id":9,"subcounty_id":108,"ward_id":693,"location_id":1807,"sublocation_id":1808,"village_id":1809},{"id":10233,"org_id":"OU685981","parent_id":"OU763737","county":"Homa Bay County","subcounty":"Homa Bay Town Sub County","ward":"Homa Bay Central Ward","location":"Kalanya Kanyango Location","sublocation":"Kalanya Kanyango Sub Location","village":"Kuja - B Village","county_id":9,"subcounty_id":108,"ward_id":693,"location_id":1807,"sublocation_id":1808,"village_id":1810},{"id":10234,"org_id":"OU773250","parent_id":"OU763737","county":"Homa Bay County","subcounty":"Homa Bay Town Sub County","ward":"Homa Bay Central Ward","location":"Kalanya Kanyango Location","sublocation":"Kalanya Kanyango Sub Location","village":"Kuja - C Village","county_id":9,"subcounty_id":108,"ward_id":693,"location_id":1807,"sublocation_id":1808,"village_id":1811},{"id":10235,"org_id":"OU641756","parent_id":"OU763737","county":"Homa Bay County","subcounty":"Homa Bay Town Sub County","ward":"Homa Bay Central Ward","location":"Kalanya Kanyango Location","sublocation":"Kalanya Kanyango Sub Location","village":"Muche - A Village","county_id":9,"subcounty_id":108,"ward_id":693,"location_id":1807,"sublocation_id":1808,"village_id":1812},{"id":10236,"org_id":"OU659945","parent_id":"OU763737","county":"Homa Bay County","subcounty":"Homa Bay Town Sub County","ward":"Homa Bay Central Ward","location":"Kalanya Kanyango Location","sublocation":"Kalanya Kanyango Sub Location","village":"Muche - B Village","county_id":9,"subcounty_id":108,"ward_id":693,"location_id":1807,"sublocation_id":1808,"village_id":1813},{"id":10237,"org_id":"OU632194","parent_id":"OU763737","county":"Homa Bay County","subcounty":"Homa Bay Town Sub County","ward":"Homa Bay Central Ward","location":"Kalanya Kanyango Location","sublocation":"Kalanya Kanyango Sub Location","village":"Muche - C Village","county_id":9,"subcounty_id":108,"ward_id":693,"location_id":1807,"sublocation_id":1808,"village_id":1814},{"id":10238,"org_id":"OU904806","parent_id":"OU763737","county":"Homa Bay County","subcounty":"Homa Bay Town Sub County","ward":"Homa Bay Central Ward","location":"Kalanya Kanyango Location","sublocation":"Kalanya Kanyango Sub Location","village":"Ojunge - A Village","county_id":9,"subcounty_id":108,"ward_id":693,"location_id":1807,"sublocation_id":1808,"village_id":1815},{"id":10239,"org_id":"OU289074","parent_id":"OU763737","county":"Homa Bay County","subcounty":"Homa Bay Town Sub County","ward":"Homa Bay Central Ward","location":"Kalanya Kanyango Location","sublocation":"Kalanya Kanyango Sub Location","village":"Ojunge - B Village","county_id":9,"subcounty_id":108,"ward_id":693,"location_id":1807,"sublocation_id":1808,"village_id":1816},{"id":10240,"org_id":"OU459885","parent_id":"OU763737","county":"Homa Bay County","subcounty":"Homa Bay Town Sub County","ward":"Homa Bay Central Ward","location":"Kalanya Kanyango Location","sublocation":"Kalanya Kanyango Sub Location","village":"Ojunge - C Village","county_id":9,"subcounty_id":108,"ward_id":693,"location_id":1807,"sublocation_id":1808,"village_id":1817},{"id":10241,"org_id":"OU145946","parent_id":"OU763737","county":"Homa Bay County","subcounty":"Homa Bay Town Sub County","ward":"Homa Bay Central Ward","location":"Kalanya Kanyango Location","sublocation":"Kalanya Kanyango Sub Location","village":"Ojunge - D Village","county_id":9,"subcounty_id":108,"ward_id":693,"location_id":1807,"sublocation_id":1808,"village_id":1818},{"id":10242,"org_id":"OU596780","parent_id":"OU763737","county":"Homa Bay County","subcounty":"Homa Bay Town Sub County","ward":"Homa Bay Central Ward","location":"Homa -Bay Town Location","sublocation":"Hospital Sub Location","village":"Hospital Quarters Village","county_id":9,"subcounty_id":108,"ward_id":693,"location_id":1819,"sublocation_id":1820,"village_id":1821},{"id":10243,"org_id":"OU975606","parent_id":"OU763737","county":"Homa Bay County","subcounty":"Homa Bay Town Sub County","ward":"Homa Bay Central Ward","location":"Homa -Bay Town Location","sublocation":"Hospital Sub Location","village":"Kaburini Village","county_id":9,"subcounty_id":108,"ward_id":693,"location_id":1819,"sublocation_id":1820,"village_id":1822},{"id":10244,"org_id":"OU980963","parent_id":"OU763737","county":"Homa Bay County","subcounty":"Homa Bay Town Sub County","ward":"Homa Bay Central Ward","location":"Homa -Bay Town Location","sublocation":"Hospital Sub Location","village":"Asego\/Kerra Village","county_id":9,"subcounty_id":108,"ward_id":693,"location_id":1819,"sublocation_id":1820,"village_id":1823},{"id":10245,"org_id":"OU280549","parent_id":"OU763737","county":"Homa Bay County","subcounty":"Homa Bay Town Sub County","ward":"Homa Bay Central Ward","location":"Homa -Bay Town Location","sublocation":"Hospital Sub Location","village":"Site -A Village","county_id":9,"subcounty_id":108,"ward_id":693,"location_id":1819,"sublocation_id":1820,"village_id":1824},{"id":10246,"org_id":"OU584761","parent_id":"OU763737","county":"Homa Bay County","subcounty":"Homa Bay Town Sub County","ward":"Homa Bay Central Ward","location":"Homa -Bay Town Location","sublocation":"Hospital Sub Location","village":"Site -B Village","county_id":9,"subcounty_id":108,"ward_id":693,"location_id":1819,"sublocation_id":1820,"village_id":1825},{"id":10247,"org_id":"OU534070","parent_id":"OU763737","county":"Homa Bay County","subcounty":"Homa Bay Town Sub County","ward":"Homa Bay Central Ward","location":"Homa -Bay Town Location","sublocation":"Hospital Sub Location","village":"Site -C Village","county_id":9,"subcounty_id":108,"ward_id":693,"location_id":1819,"sublocation_id":1820,"village_id":1826},{"id":10248,"org_id":"OU814548","parent_id":"OU763737","county":"Homa Bay County","subcounty":"Homa Bay Town Sub County","ward":"Homa Bay Central Ward","location":"Homa -Bay Town Location","sublocation":"Hospital Sub Location","village":"Site - D Village","county_id":9,"subcounty_id":108,"ward_id":693,"location_id":1819,"sublocation_id":1820,"village_id":1827},{"id":10249,"org_id":"OU701452","parent_id":"OU763737","county":"Homa Bay County","subcounty":"Homa Bay Town Sub County","ward":"Homa Bay Central Ward","location":"Homa -Bay Town Location","sublocation":"Hospital Sub Location","village":"Oriang Village","county_id":9,"subcounty_id":108,"ward_id":693,"location_id":1819,"sublocation_id":1820,"village_id":1828},{"id":10250,"org_id":"OU949264","parent_id":"OU763737","county":"Homa Bay County","subcounty":"Homa Bay Town Sub County","ward":"Homa Bay Central Ward","location":"Homa -Bay Town Location","sublocation":"Hospital Sub Location","village":"Upper Water Village","county_id":9,"subcounty_id":108,"ward_id":693,"location_id":1819,"sublocation_id":1820,"village_id":1829},{"id":10251,"org_id":"OU410594","parent_id":"OU763737","county":"Homa Bay County","subcounty":"Homa Bay Town Sub County","ward":"Homa Bay Central Ward","location":"Asego Location","sublocation":"Asego A Sub Location","village":"Simenya Village","county_id":9,"subcounty_id":108,"ward_id":693,"location_id":1830,"sublocation_id":1831,"village_id":1832},{"id":10252,"org_id":"OU124586","parent_id":"OU763737","county":"Homa Bay County","subcounty":"Homa Bay Town Sub County","ward":"Homa Bay Central Ward","location":"Asego Location","sublocation":"Asego A Sub Location","village":"Got Rabuor Village","county_id":9,"subcounty_id":108,"ward_id":693,"location_id":1830,"sublocation_id":1831,"village_id":1833},{"id":10253,"org_id":"OU133360","parent_id":"OU763737","county":"Homa Bay County","subcounty":"Homa Bay Town Sub County","ward":"Homa Bay Central Ward","location":"Asego Location","sublocation":"Asego A Sub Location","village":"Upper Kokidi Village","county_id":9,"subcounty_id":108,"ward_id":693,"location_id":1830,"sublocation_id":1831,"village_id":1834},{"id":10254,"org_id":"OU109798","parent_id":"OU763737","county":"Homa Bay County","subcounty":"Homa Bay Town Sub County","ward":"Homa Bay Central Ward","location":"Asego Location","sublocation":"Asego A Sub Location","village":"Lower Kokidi Village","county_id":9,"subcounty_id":108,"ward_id":693,"location_id":1830,"sublocation_id":1831,"village_id":1835},{"id":10255,"org_id":"OU186689","parent_id":"OU763737","county":"Homa Bay County","subcounty":"Homa Bay Town Sub County","ward":"Homa Bay Central Ward","location":"Asego Location","sublocation":"Asego A Sub Location","village":"Central Makongeni Village","county_id":9,"subcounty_id":108,"ward_id":693,"location_id":1830,"sublocation_id":1831,"village_id":1836},{"id":10256,"org_id":"OU917720","parent_id":"OU763737","county":"Homa Bay County","subcounty":"Homa Bay Town Sub County","ward":"Homa Bay Central Ward","location":"Asego Location","sublocation":"Asego A Sub Location","village":"Makongeni - A Village","county_id":9,"subcounty_id":108,"ward_id":693,"location_id":1830,"sublocation_id":1831,"village_id":1837},{"id":10257,"org_id":"OU253394","parent_id":"OU763737","county":"Homa Bay County","subcounty":"Homa Bay Town Sub County","ward":"Homa Bay Central Ward","location":"Asego Location","sublocation":"Asego A Sub Location","village":"Makongeni - B Village","county_id":9,"subcounty_id":108,"ward_id":693,"location_id":1830,"sublocation_id":1831,"village_id":1838},{"id":10258,"org_id":"OU400617","parent_id":"OU763737","county":"Homa Bay County","subcounty":"Homa Bay Town Sub County","ward":"Homa Bay Central Ward","location":"Asego Location","sublocation":"Asego A Sub Location","village":"Health Centre Village","county_id":9,"subcounty_id":108,"ward_id":693,"location_id":1830,"sublocation_id":1831,"village_id":1839},{"id":10259,"org_id":"OU979516","parent_id":"OU763737","county":"Homa Bay County","subcounty":"Homa Bay Town Sub County","ward":"Homa Bay Central Ward","location":"Asego Location","sublocation":"Asego A Sub Location","village":"Lower Makongeni Village","county_id":9,"subcounty_id":108,"ward_id":693,"location_id":1830,"sublocation_id":1831,"village_id":1840},{"id":10260,"org_id":"OU393333","parent_id":"OU932989","county":"Homa Bay County","subcounty":"Homa Bay Town Sub County","ward":"Homa Bay Central Ward","location":"Asego Location","sublocation":"Asego A Sub Location","village":"Upper Makongeni Village","county_id":9,"subcounty_id":108,"ward_id":693,"location_id":1830,"sublocation_id":1831,"village_id":1841},{"id":10261,"org_id":"OU112580","parent_id":"OU932989","county":"Homa Bay County","subcounty":"Homa Bay Town Sub County","ward":"Homa Bay Central Ward","location":"Asego Location","sublocation":"Asego B Sub Location","village":"Kogelo Kalanya Village","county_id":9,"subcounty_id":108,"ward_id":693,"location_id":1830,"sublocation_id":1842,"village_id":1843},{"id":10262,"org_id":"OU466834","parent_id":"OU932989","county":"Homa Bay County","subcounty":"Homa Bay Town Sub County","ward":"Homa Bay Central Ward","location":"Asego Location","sublocation":"Asego B Sub Location","village":"Kanyamaya Village","county_id":9,"subcounty_id":108,"ward_id":693,"location_id":1830,"sublocation_id":1842,"village_id":1844},{"id":10263,"org_id":"OU466383","parent_id":"OU932989","county":"Homa Bay County","subcounty":"Homa Bay Town Sub County","ward":"Homa Bay Central Ward","location":"Asego Location","sublocation":"Asego B Sub Location","village":"Kogola - B Village","county_id":9,"subcounty_id":108,"ward_id":693,"location_id":1830,"sublocation_id":1842,"village_id":1845},{"id":10264,"org_id":"OU997406","parent_id":"OU932989","county":"Homa Bay County","subcounty":"Homa Bay Town Sub County","ward":"Homa Bay Central Ward","location":"Asego Location","sublocation":"Asego B Sub Location","village":"Kasaoke Village","county_id":9,"subcounty_id":108,"ward_id":693,"location_id":1830,"sublocation_id":1842,"village_id":1846},{"id":10265,"org_id":"OU285910","parent_id":"OU932989","county":"Homa Bay County","subcounty":"Homa Bay Town Sub County","ward":"Homa Bay Central Ward","location":"Asego Location","sublocation":"Asego B Sub Location","village":"Kondiek - B Village","county_id":9,"subcounty_id":108,"ward_id":693,"location_id":1830,"sublocation_id":1842,"village_id":1847},{"id":10266,"org_id":"OU744520","parent_id":"OU932989","county":"Homa Bay County","subcounty":"Homa Bay Town Sub County","ward":"Homa Bay Central Ward","location":"Asego Location","sublocation":"Asego B Sub Location","village":"Kondiek Kamigan Village","county_id":9,"subcounty_id":108,"ward_id":693,"location_id":1830,"sublocation_id":1842,"village_id":1848},{"id":10267,"org_id":"OU985133","parent_id":"OU932989","county":"Homa Bay County","subcounty":"Homa Bay Town Sub County","ward":"Homa Bay Central Ward","location":"Asego Location","sublocation":"Asego B Sub Location","village":"Kondiek - A Village","county_id":9,"subcounty_id":108,"ward_id":693,"location_id":1830,"sublocation_id":1842,"village_id":1849},{"id":10268,"org_id":"OU593011","parent_id":"OU932989","county":"Homa Bay County","subcounty":"Homa Bay Town Sub County","ward":"Homa Bay Central Ward","location":"Asego Location","sublocation":"Asego B Sub Location","village":"Paw Akuchhe Village","county_id":9,"subcounty_id":108,"ward_id":693,"location_id":1830,"sublocation_id":1842,"village_id":1850},{"id":10269,"org_id":"OU705592","parent_id":"OU932989","county":"Homa Bay County","subcounty":"Homa Bay Town Sub County","ward":"Homa Bay Central Ward","location":"Asego Location","sublocation":"Asego B Sub Location","village":"Rabuor Kalanya Village","county_id":9,"subcounty_id":108,"ward_id":693,"location_id":1830,"sublocation_id":1842,"village_id":1851},{"id":10270,"org_id":"OU382077","parent_id":"OU932989","county":"Homa Bay County","subcounty":"Homa Bay Town Sub County","ward":"Homa Bay Central Ward","location":"Asego Location","sublocation":"Asego B Sub Location","village":"Kogwawi Asego Village","county_id":9,"subcounty_id":108,"ward_id":693,"location_id":1830,"sublocation_id":1842,"village_id":1852},{"id":10271,"org_id":"OU209542","parent_id":"OU932989","county":"Homa Bay County","subcounty":"Homa Bay Town Sub County","ward":"Homa Bay Central Ward","location":"Asego Location","sublocation":"Kajela Sub Location","village":"Kmtc Village","county_id":9,"subcounty_id":108,"ward_id":693,"location_id":1830,"sublocation_id":1853,"village_id":1854},{"id":10272,"org_id":"OU381012","parent_id":"OU932989","county":"Homa Bay County","subcounty":"Homa Bay Town Sub County","ward":"Homa Bay Central Ward","location":"Asego Location","sublocation":"Kajela Sub Location","village":"Tom Mboya Village","county_id":9,"subcounty_id":108,"ward_id":693,"location_id":1830,"sublocation_id":1853,"village_id":1855},{"id":10273,"org_id":"OU644218","parent_id":"OU932989","county":"Homa Bay County","subcounty":"Homa Bay Town Sub County","ward":"Homa Bay Central Ward","location":"Asego Location","sublocation":"Kajela Sub Location","village":"Aic Village","county_id":9,"subcounty_id":108,"ward_id":693,"location_id":1830,"sublocation_id":1853,"village_id":1856},{"id":10274,"org_id":"OU904207","parent_id":"OU932989","county":"Homa Bay County","subcounty":"Homa Bay Town Sub County","ward":"Homa Bay Central Ward","location":"Asego Location","sublocation":"Kajela Sub Location","village":"Ap Line Village","county_id":9,"subcounty_id":108,"ward_id":693,"location_id":1830,"sublocation_id":1853,"village_id":1857},{"id":10275,"org_id":"OU556720","parent_id":"OU932989","county":"Homa Bay County","subcounty":"Homa Bay Town Sub County","ward":"Homa Bay Central Ward","location":"Asego Location","sublocation":"Kajela Sub Location","village":"Psison - A Village","county_id":9,"subcounty_id":108,"ward_id":693,"location_id":1830,"sublocation_id":1853,"village_id":1858},{"id":10276,"org_id":"OU251354","parent_id":"OU932989","county":"Homa Bay County","subcounty":"Homa Bay Town Sub County","ward":"Homa Bay Central Ward","location":"Asego Location","sublocation":"Kajela Sub Location","village":"Prisons - B Village","county_id":9,"subcounty_id":108,"ward_id":693,"location_id":1830,"sublocation_id":1853,"village_id":1859},{"id":10277,"org_id":"OU693261","parent_id":"OU534000","county":"Homa Bay County","subcounty":"Homa Bay Town Sub County","ward":"Homa Bay Central Ward","location":"Asego Location","sublocation":"Kajela Sub Location","village":"Prison - C Village","county_id":9,"subcounty_id":108,"ward_id":693,"location_id":1830,"sublocation_id":1853,"village_id":1860},{"id":10278,"org_id":"OU472281","parent_id":"OU693261","county":"Homa Bay County","subcounty":"Homa Bay Town Sub County","ward":"Homa Bay Central Ward","location":"Asego Location","sublocation":"Kajela Sub Location","village":"Prison - D Village","county_id":9,"subcounty_id":108,"ward_id":693,"location_id":1830,"sublocation_id":1853,"village_id":1861},{"id":10279,"org_id":"OU571358","parent_id":"OU693261","county":"Homa Bay County","subcounty":"Homa Bay Town Sub County","ward":"Homa Bay Central Ward","location":"Homa -Bay Town Location","sublocation":"Township Sub Location","village":"Sauri Yako - A Village","county_id":9,"subcounty_id":108,"ward_id":693,"location_id":1819,"sublocation_id":1862,"village_id":1863},{"id":10280,"org_id":"OU419666","parent_id":"OU693261","county":"Homa Bay County","subcounty":"Homa Bay Town Sub County","ward":"Homa Bay Central Ward","location":"Homa -Bay Town Location","sublocation":"Township Sub Location","village":"Sauriyako - B Village","county_id":9,"subcounty_id":108,"ward_id":693,"location_id":1819,"sublocation_id":1862,"village_id":1864},{"id":10281,"org_id":"OU618018","parent_id":"OU693261","county":"Homa Bay County","subcounty":"Homa Bay Town Sub County","ward":"Homa Bay Central Ward","location":"Homa -Bay Town Location","sublocation":"Township Sub Location","village":"Salama Village","county_id":9,"subcounty_id":108,"ward_id":693,"location_id":1819,"sublocation_id":1862,"village_id":1865}],"pagination":{"current_page":1,"total_pages":217,"per_page":50,"total":10810}}